-- Merging decision tree log ---
manifest
ADDED from D:\Espresso\bitbucket espresso\espresso-learning\IntentsBasicSample\app\src\main\AndroidManifest.xml:18:1-41:12
INJECTED from D:\Espresso\bitbucket espresso\espresso-learning\IntentsBasicSample\app\src\main\AndroidManifest.xml:18:1-41:12
INJECTED from D:\Espresso\bitbucket espresso\espresso-learning\IntentsBasicSample\app\src\main\AndroidManifest.xml:18:1-41:12
INJECTED from D:\Espresso\bitbucket espresso\espresso-learning\IntentsBasicSample\app\src\main\AndroidManifest.xml:18:1-41:12
MERGED from [androidx.core:core:1.2.0] C:\Users\pooja.galgate\.gradle\caches\transforms-2\files-2.1\c66c83cea6812b8fb9b32c6de6528c32\core-1.2.0\AndroidManifest.xml:17:1-26:12
MERGED from [androidx.lifecycle:lifecycle-runtime:2.0.0] C:\Users\pooja.galgate\.gradle\caches\transforms-2\files-2.1\3c674787eba3845bceb3c8e047ea3f2b\lifecycle-runtime-2.0.0\AndroidManifest.xml:17:1-22:12
MERGED from [androidx.versionedparcelable:versionedparcelable:1.1.0] C:\Users\pooja.galgate\.gradle\caches\transforms-2\files-2.1\923edbed51982e20041b6a7f15dbee04\versionedparcelable-1.1.0\AndroidManifest.xml:17:1-27:12
INJECTED from D:\Espresso\bitbucket espresso\espresso-learning\IntentsBasicSample\app\src\main\AndroidManifest.xml:18:1-41:12
INJECTED from D:\Espresso\bitbucket espresso\espresso-learning\IntentsBasicSample\app\src\main\AndroidManifest.xml:18:1-41:12
INJECTED from D:\Espresso\bitbucket espresso\espresso-learning\IntentsBasicSample\app\src\main\AndroidManifest.xml:18:1-41:12
	package
		ADDED from D:\Espresso\bitbucket espresso\espresso-learning\IntentsBasicSample\app\src\main\AndroidManifest.xml:19:11-76
		INJECTED from D:\Espresso\bitbucket espresso\espresso-learning\IntentsBasicSample\app\src\main\AndroidManifest.xml
		INJECTED from D:\Espresso\bitbucket espresso\espresso-learning\IntentsBasicSample\app\src\main\AndroidManifest.xml
	android:versionName
		INJECTED from D:\Espresso\bitbucket espresso\espresso-learning\IntentsBasicSample\app\src\main\AndroidManifest.xml
		ADDED from D:\Espresso\bitbucket espresso\espresso-learning\IntentsBasicSample\app\src\main\AndroidManifest.xml:18:1-41:12
		INJECTED from D:\Espresso\bitbucket espresso\espresso-learning\IntentsBasicSample\app\src\main\AndroidManifest.xml
	android:versionCode
		INJECTED from D:\Espresso\bitbucket espresso\espresso-learning\IntentsBasicSample\app\src\main\AndroidManifest.xml
		ADDED from D:\Espresso\bitbucket espresso\espresso-learning\IntentsBasicSample\app\src\main\AndroidManifest.xml:18:1-41:12
		INJECTED from D:\Espresso\bitbucket espresso\espresso-learning\IntentsBasicSample\app\src\main\AndroidManifest.xml
	xmlns:android
		ADDED from D:\Espresso\bitbucket espresso\espresso-learning\IntentsBasicSample\app\src\main\AndroidManifest.xml:18:11-69
uses-permission#android.permission.CALL_PHONE
ADDED from D:\Espresso\bitbucket espresso\espresso-learning\IntentsBasicSample\app\src\main\AndroidManifest.xml:21:5-68
	android:name
		ADDED from D:\Espresso\bitbucket espresso\espresso-learning\IntentsBasicSample\app\src\main\AndroidManifest.xml:21:22-66
application
ADDED from D:\Espresso\bitbucket espresso\espresso-learning\IntentsBasicSample\app\src\main\AndroidManifest.xml:23:5-39:19
MERGED from [androidx.core:core:1.2.0] C:\Users\pooja.galgate\.gradle\caches\transforms-2\files-2.1\c66c83cea6812b8fb9b32c6de6528c32\core-1.2.0\AndroidManifest.xml:24:5-89
MERGED from [androidx.core:core:1.2.0] C:\Users\pooja.galgate\.gradle\caches\transforms-2\files-2.1\c66c83cea6812b8fb9b32c6de6528c32\core-1.2.0\AndroidManifest.xml:24:5-89
MERGED from [androidx.versionedparcelable:versionedparcelable:1.1.0] C:\Users\pooja.galgate\.gradle\caches\transforms-2\files-2.1\923edbed51982e20041b6a7f15dbee04\versionedparcelable-1.1.0\AndroidManifest.xml:24:5-25:19
MERGED from [androidx.versionedparcelable:versionedparcelable:1.1.0] C:\Users\pooja.galgate\.gradle\caches\transforms-2\files-2.1\923edbed51982e20041b6a7f15dbee04\versionedparcelable-1.1.0\AndroidManifest.xml:24:5-25:19
	android:appComponentFactory
		ADDED from [androidx.core:core:1.2.0] C:\Users\pooja.galgate\.gradle\caches\transforms-2\files-2.1\c66c83cea6812b8fb9b32c6de6528c32\core-1.2.0\AndroidManifest.xml:24:18-86
	android:label
		ADDED from D:\Espresso\bitbucket espresso\espresso-learning\IntentsBasicSample\app\src\main\AndroidManifest.xml:25:13-45
	android:icon
		ADDED from D:\Espresso\bitbucket espresso\espresso-learning\IntentsBasicSample\app\src\main\AndroidManifest.xml:24:13-49
	android:theme
		ADDED from D:\Espresso\bitbucket espresso\espresso-learning\IntentsBasicSample\app\src\main\AndroidManifest.xml:26:13-44
activity#com.example.android.testing.espresso.IntentsBasicSample.DialerActivity
ADDED from D:\Espresso\bitbucket espresso\espresso-learning\IntentsBasicSample\app\src\main\AndroidManifest.xml:27:9-34:20
	android:label
		ADDED from D:\Espresso\bitbucket espresso\espresso-learning\IntentsBasicSample\app\src\main\AndroidManifest.xml:29:17-49
	android:name
		ADDED from D:\Espresso\bitbucket espresso\espresso-learning\IntentsBasicSample\app\src\main\AndroidManifest.xml:28:17-47
intent-filter#action:name:android.intent.action.MAIN+category:name:android.intent.category.LAUNCHER
ADDED from D:\Espresso\bitbucket espresso\espresso-learning\IntentsBasicSample\app\src\main\AndroidManifest.xml:30:13-33:29
action#android.intent.action.MAIN
ADDED from D:\Espresso\bitbucket espresso\espresso-learning\IntentsBasicSample\app\src\main\AndroidManifest.xml:31:17-68
	android:name
		ADDED from D:\Espresso\bitbucket espresso\espresso-learning\IntentsBasicSample\app\src\main\AndroidManifest.xml:31:25-66
category#android.intent.category.LAUNCHER
ADDED from D:\Espresso\bitbucket espresso\espresso-learning\IntentsBasicSample\app\src\main\AndroidManifest.xml:32:17-76
	android:name
		ADDED from D:\Espresso\bitbucket espresso\espresso-learning\IntentsBasicSample\app\src\main\AndroidManifest.xml:32:27-74
activity#com.example.android.testing.espresso.IntentsBasicSample.ContactsActivity
ADDED from D:\Espresso\bitbucket espresso\espresso-learning\IntentsBasicSample\app\src\main\AndroidManifest.xml:35:9-37:51
	android:label
		ADDED from D:\Espresso\bitbucket espresso\espresso-learning\IntentsBasicSample\app\src\main\AndroidManifest.xml:37:17-49
	android:name
		ADDED from D:\Espresso\bitbucket espresso\espresso-learning\IntentsBasicSample\app\src\main\AndroidManifest.xml:36:17-49
uses-sdk
INJECTED from D:\Espresso\bitbucket espresso\espresso-learning\IntentsBasicSample\app\src\main\AndroidManifest.xml reason: use-sdk injection requested
INJECTED from D:\Espresso\bitbucket espresso\espresso-learning\IntentsBasicSample\app\src\main\AndroidManifest.xml
INJECTED from D:\Espresso\bitbucket espresso\espresso-learning\IntentsBasicSample\app\src\main\AndroidManifest.xml
MERGED from [androidx.core:core:1.2.0] C:\Users\pooja.galgate\.gradle\caches\transforms-2\files-2.1\c66c83cea6812b8fb9b32c6de6528c32\core-1.2.0\AndroidManifest.xml:20:5-22:41
MERGED from [androidx.core:core:1.2.0] C:\Users\pooja.galgate\.gradle\caches\transforms-2\files-2.1\c66c83cea6812b8fb9b32c6de6528c32\core-1.2.0\AndroidManifest.xml:20:5-22:41
MERGED from [androidx.lifecycle:lifecycle-runtime:2.0.0] C:\Users\pooja.galgate\.gradle\caches\transforms-2\files-2.1\3c674787eba3845bceb3c8e047ea3f2b\lifecycle-runtime-2.0.0\AndroidManifest.xml:20:5-44
MERGED from [androidx.lifecycle:lifecycle-runtime:2.0.0] C:\Users\pooja.galgate\.gradle\caches\transforms-2\files-2.1\3c674787eba3845bceb3c8e047ea3f2b\lifecycle-runtime-2.0.0\AndroidManifest.xml:20:5-44
MERGED from [androidx.versionedparcelable:versionedparcelable:1.1.0] C:\Users\pooja.galgate\.gradle\caches\transforms-2\files-2.1\923edbed51982e20041b6a7f15dbee04\versionedparcelable-1.1.0\AndroidManifest.xml:20:5-22:41
MERGED from [androidx.versionedparcelable:versionedparcelable:1.1.0] C:\Users\pooja.galgate\.gradle\caches\transforms-2\files-2.1\923edbed51982e20041b6a7f15dbee04\versionedparcelable-1.1.0\AndroidManifest.xml:20:5-22:41
INJECTED from D:\Espresso\bitbucket espresso\espresso-learning\IntentsBasicSample\app\src\main\AndroidManifest.xml
INJECTED from D:\Espresso\bitbucket espresso\espresso-learning\IntentsBasicSample\app\src\main\AndroidManifest.xml
	android:targetSdkVersion
		INJECTED from D:\Espresso\bitbucket espresso\espresso-learning\IntentsBasicSample\app\src\main\AndroidManifest.xml
		ADDED from D:\Espresso\bitbucket espresso\espresso-learning\IntentsBasicSample\app\src\main\AndroidManifest.xml
		INJECTED from D:\Espresso\bitbucket espresso\espresso-learning\IntentsBasicSample\app\src\main\AndroidManifest.xml
	android:minSdkVersion
		INJECTED from D:\Espresso\bitbucket espresso\espresso-learning\IntentsBasicSample\app\src\main\AndroidManifest.xml
		ADDED from D:\Espresso\bitbucket espresso\espresso-learning\IntentsBasicSample\app\src\main\AndroidManifest.xml
		INJECTED from D:\Espresso\bitbucket espresso\espresso-learning\IntentsBasicSample\app\src\main\AndroidManifest.xml
